{
  "Project #1": {
    "Git SHA": "2068959b1001e614756936c625b7331a523eefdb",
    "GitLab Username": "pvd232",
    "GitLab URL": "https://gitlab.com/pvd232/team6project1",
    "Website URL": "",
    "Member #1 EID": "pvd232",
    "Member #1 First Name": "Peter",
    "Member #1 Last Name": "Driscoll",
    "Member #1 E-mail": "peter.v.driscoll@utexas.edu",
    "Member #1 Estimated Completion Time (hours : integer)": 10,
    "Member #1 Actual   Completion Time (hours : integer)": 15,
    "Member #2 EID": "as75398",
    "Member #2 First Name": "Aali",
    "Member #2 Last Name": "Sahay",
    "Member #2 E-mail": "aali.sahay@gmail.com",
    "Member #2 Estimated Completion Time (hours : integer)": 10,
    "Member #2 Actual   Completion Time (hours : integer)": 15,
    "Member #3 EID": "fmm566",
    "Member #3 First Name": "Fernando",
    "Member #3 Last Name": "Martinez Mojica",
    "Member #3 E-mail": "fernando.mojica@utexas.edu",
    "Member #3 Estimated Completion Time (hours : integer)": 10,
    "Member #3 Actual   Completion Time (hours : integer)": 15,
    "Member #4 EID": "dnl458",
    "Member #4 First Name": "Dung",
    "Member #4 Last Name": "Le",
    "Member #4 E-mail": "hoangdung.le@utexas.edu",
    "Member #4 Estimated Completion Time (hours : integer)": 10,
    "Member #4 Actual   Completion Time (hours : integer)": 15,
    "Member #5 EID": "anz327",
    "Member #5 First Name": "Arnab",
    "Member #5 Last Name": "Zubair",
    "Member #5 E-mail": "arnab37zubair@gmail.com",
    "Member #5 Estimated Completion Time (hours : integer)": 10,
    "Member #5 Actual   Completion Time (hours : integer)": 15,
    "Comments": ""
  }
}